   3.3566667e+01	   9.5000000e+00	
   3.4566667e+01	   9.4400000e+00	
   3.5566667e+01	   9.3800000e+00	
   3.6566667e+01	   9.3200000e+00	
   3.7566667e+01	   9.2600000e+00	
   3.8566667e+01	   9.2000000e+00	
   3.9566667e+01	   9.1400000e+00	
   4.0566667e+01	   9.0800000e+00	
   4.1466667e+01	   9.0200000e+00	
   4.2433333e+01	   8.9600000e+00	
   4.3350000e+01	   8.9000000e+00	
   4.4300000e+01	   8.8400000e+00	
   4.5200000e+01	   8.7800000e+00	
   4.6150000e+01	   8.7200000e+00	
   4.7100000e+01	   8.6600000e+00	
   4.8000000e+01	   8.6000000e+00	
   4.9000000e+01	   8.5400000e+00	
   4.9900000e+01	   8.4800000e+00	
   5.0850000e+01	   8.4200000e+00	
   5.1800000e+01	   8.3600000e+00	
   5.2700000e+01	   8.3000000e+00	
   5.3700000e+01	   8.2400000e+00	
   5.4640000e+01	   8.1800000e+00	
   5.5600000e+01	   8.1200000e+00	
   5.6600000e+01	   8.0600000e+00	
   5.7550000e+01	   8.0000000e+00	
