   4.9400000e+01   8.5100000e+00   3.3400000e+00   1.0870000e+00
   4.9500000e+01   8.5040000e+00   3.3420000e+00   1.0870000e+00
   4.9600000e+01   8.4980000e+00   3.3440000e+00   1.0870000e+00
   4.9700000e+01   8.4920000e+00   3.3460000e+00   1.0870000e+00
   4.9800000e+01   8.4860000e+00   3.3480000e+00   1.0870000e+00
   4.9900000e+01   8.4800000e+00   3.3500000e+00   1.0870000e+00
   5.0000000e+01   8.4740000e+00   3.3500000e+00   1.0870000e+00
   5.0100000e+01   8.4680000e+00   3.3500000e+00   1.0870000e+00
   5.0200000e+01   8.4620000e+00   3.3500000e+00   1.0870000e+00
   5.0300000e+01   8.4560000e+00   3.3500000e+00   1.0870000e+00
   5.0400000e+01   8.4500000e+00   3.3500000e+00   1.0870000e+00
